{ "height":23,
 "layers":[
        {
         "data":[0, 0, 14, 1, 1, 1, 1, 1, 1, 1, 3, 3, 1, 1, 1, 1, 1, 1, 1, 3, 3, 1, 1, 1, 1, 1, 1, 1, 3, 3, 1, 1, 1, 1, 1, 1, 1, 14, 0, 0, 0, 0, 2, 0, 0, 0, 0, 0, 0, 0, 2, 2, 0, 0, 0, 0, 0, 0, 0, 2, 2, 0, 0, 0, 0, 0, 0, 0, 2, 2, 0, 0, 0, 0, 0, 0, 0, 2, 0, 0, 0, 0, 2, 0, 0, 0, 0, 0, 0, 0, 2, 2, 0, 0, 0, 0, 0, 0, 0, 2, 2, 0, 0, 0, 0, 0, 0, 0, 2, 2, 0, 0, 0, 0, 0, 0, 0, 2, 0, 0, 0, 0, 2, 0, 0, 0, 0, 0, 0, 0, 2, 2, 0, 0, 0, 0, 0, 0, 0, 2, 2, 0, 0, 0, 0, 0, 0, 0, 2, 2, 0, 0, 0, 0, 0, 0, 0, 2, 0, 0, 0, 0, 2, 0, 0, 0, 0, 0, 0, 0, 2, 2, 0, 0, 0, 0, 0, 0, 0, 2, 2, 0, 0, 0, 0, 0, 0, 0, 2, 2, 0, 0, 0, 0, 0, 0, 0, 2, 0, 0, 0, 0, 2, 0, 0, 0, 0, 0, 0, 0, 2, 2, 0, 0, 0, 0, 0, 0, 0, 2, 2, 0, 0, 0, 0, 0, 0, 0, 2, 2, 0, 0, 0, 0, 0, 0, 0, 2, 0, 0, 0, 0, 2, 0, 0, 0, 0, 0, 0, 0, 2, 2, 0, 0, 0, 0, 0, 0, 0, 2, 2, 0, 0, 0, 0, 0, 0, 0, 2, 2, 0, 0, 0, 0, 0, 0, 0, 2, 0, 0, 0, 0, 2, 0, 0, 0, 0, 0, 0, 0, 2, 2, 0, 0, 0, 0, 0, 0, 0, 2, 2, 0, 0, 0, 0, 0, 0, 0, 2, 2, 0, 0, 0, 0, 0, 0, 0, 2, 0, 0, 0, 0, 2, 0, 0, 0, 0, 0, 0, 0, 2, 2, 0, 0, 0, 0, 0, 0, 0, 2, 2, 0, 0, 0, 0, 0, 0, 0, 2, 2, 0, 0, 0, 0, 0, 0, 0, 2, 0, 0, 0, 0, 2, 0, 0, 0, 0, 0, 0, 0, 2, 2, 0, 0, 0, 0, 0, 0, 0, 2, 2, 0, 0, 0, 0, 0, 0, 0, 2, 2, 0, 0, 0, 0, 0, 0, 0, 2, 0, 0, 0, 0, 2, 0, 0, 0, 0, 0, 0, 0, 2, 2, 0, 0, 0, 0, 0, 0, 0, 2, 2, 0, 0, 0, 0, 0, 0, 0, 2, 2, 0, 0, 0, 0, 0, 0, 0, 2, 0, 0, 0, 0, 2, 0, 0, 0, 0, 0, 0, 0, 2, 2, 0, 0, 0, 0, 0, 0, 0, 2, 2, 0, 0, 0, 0, 0, 0, 0, 2, 2, 0, 0, 0, 0, 0, 0, 0, 2, 0, 0, 0, 0, 2, 0, 0, 0, 0, 0, 0, 0, 2, 2, 0, 0, 0, 0, 0, 0, 0, 2, 2, 0, 0, 0, 0, 0, 0, 0, 2, 2, 0, 0, 0, 0, 0, 0, 0, 2, 0, 0, 0, 0, 2, 0, 0, 0, 0, 0, 0, 0, 2, 2, 0, 0, 0, 0, 0, 0, 0, 2, 2, 0, 0, 0, 0, 0, 0, 0, 2, 2, 0, 0, 0, 0, 0, 0, 0, 2, 0, 0, 0, 0, 2, 0, 0, 0, 0, 0, 0, 0, 2, 2, 0, 0, 0, 0, 0, 0, 0, 2, 2, 0, 0, 0, 0, 0, 0, 0, 2, 2, 0, 0, 0, 0, 0, 0, 0, 2, 0, 0, 0, 0, 2, 0, 0, 0, 0, 0, 0, 0, 2, 2, 0, 0, 0, 0, 0, 0, 0, 2, 2, 0, 0, 0, 0, 0, 0, 0, 2, 2, 0, 0, 0, 0, 0, 0, 0, 2, 0, 0, 0, 0, 2, 0, 0, 0, 0, 0, 0, 0, 2, 2, 0, 0, 0, 0, 0, 0, 0, 2, 2, 0, 0, 0, 0, 0, 0, 0, 2, 2, 0, 0, 0, 0, 0, 0, 0, 2, 0, 0, 0, 0, 2, 0, 0, 0, 0, 0, 0, 0, 2, 2, 0, 0, 0, 0, 0, 0, 0, 2, 2, 0, 0, 0, 0, 0, 0, 0, 2, 2, 0, 0, 0, 0, 0, 0, 0, 2, 0, 0, 0, 0, 2, 0, 0, 0, 0, 0, 0, 0, 2, 2, 0, 0, 0, 0, 0, 0, 0, 2, 2, 0, 0, 0, 0, 0, 0, 0, 2, 2, 0, 0, 0, 0, 0, 0, 0, 2, 0, 0, 0, 0, 2, 0, 0, 0, 0, 0, 0, 0, 2, 2, 0, 0, 0, 0, 0, 0, 0, 2, 2, 0, 0, 0, 0, 0, 0, 0, 2, 2, 0, 0, 0, 0, 0, 0, 0, 2, 0, 0, 0, 0, 2, 0, 0, 0, 0, 0, 0, 0, 2, 2, 0, 0, 0, 0, 0, 0, 0, 2, 2, 0, 0, 0, 0, 0, 0, 0, 2, 2, 0, 0, 0, 0, 0, 0, 0, 2, 0, 0, 0, 0, 2, 0, 0, 0, 0, 0, 0, 0, 2, 2, 0, 0, 0, 0, 0, 0, 0, 2, 2, 0, 0, 0, 0, 0, 0, 0, 2, 2, 0, 0, 0, 0, 0, 0, 0, 2, 0, 0, 0, 0, 14, 1, 1, 1, 1, 1, 1, 1, 3, 3, 1, 1, 1, 1, 1, 1, 1, 3, 3, 1, 1, 1, 1, 1, 1, 1, 3, 3, 1, 1, 1, 1, 1, 1, 1, 14, 0, 0],
         "height":23,
         "name":"Tile Layer 1",
         "opacity":1,
         "type":"tilelayer",
         "visible":true,
         "width":40,
         "x":0,
         "y":0
        }, 
        {
         "color":"#00ff00",
         "draworder":"topdown",
         "height":23,
         "name":"Colliders",
         "objects":[
                {
                 "height":460,
                 "id":1,
                 "name":"bounce",
                 "properties":
                    {

                    },
                 "rotation":0,
                 "type":"bounce",
                 "visible":true,
                 "width":20,
                 "x":40,
                 "y":0
                }, 
                {
                 "height":460,
                 "id":2,
                 "name":"bounce",
                 "properties":
                    {

                    },
                 "rotation":0,
                 "type":"bounce",
                 "visible":true,
                 "width":20,
                 "x":740,
                 "y":0
                }, 
                {
                 "height":20,
                 "id":4,
                 "name":"bounce",
                 "properties":
                    {

                    },
                 "rotation":0,
                 "type":"bounce",
                 "visible":true,
                 "width":680,
                 "x":60,
                 "y":0
                }, 
                {
                 "height":20,
                 "id":5,
                 "name":"bounce",
                 "properties":
                    {

                    },
                 "rotation":0,
                 "type":"bounce",
                 "visible":true,
                 "width":680,
                 "x":60,
                 "y":440
                }, 
                {
                 "height":420,
                 "id":28,
                 "name":"bounce",
                 "properties":
                    {

                    },
                 "rotation":0,
                 "type":"bounce",
                 "visible":true,
                 "width":40,
                 "x":560,
                 "y":20
                }, 
                {
                 "height":420,
                 "id":29,
                 "name":"bounce",
                 "properties":
                    {

                    },
                 "rotation":0,
                 "type":"bounce",
                 "visible":true,
                 "width":40,
                 "x":380,
                 "y":20
                }, 
                {
                 "height":420,
                 "id":30,
                 "name":"bounce",
                 "properties":
                    {

                    },
                 "rotation":0,
                 "type":"bounce",
                 "visible":true,
                 "width":40,
                 "x":200,
                 "y":20
                }],
         "opacity":1,
         "type":"objectgroup",
         "visible":true,
         "width":40,
         "x":0,
         "y":0
        }, 
        {
         "color":"#ff007f",
         "draworder":"topdown",
         "height":23,
         "name":"Spawns",
         "objects":[
                {
                 "height":20,
                 "id":31,
                 "name":"player",
                 "properties":
                    {
                     "id":"1"
                    },
                 "rotation":0,
                 "type":"",
                 "visible":true,
                 "width":20,
                 "x":120,
                 "y":200
                }, 
                {
                 "height":20,
                 "id":32,
                 "name":"player",
                 "properties":
                    {
                     "id":"2"
                    },
                 "rotation":0,
                 "type":"",
                 "visible":true,
                 "width":20,
                 "x":300,
                 "y":200
                }, 
                {
                 "height":20,
                 "id":33,
                 "name":"player",
                 "properties":
                    {
                     "id":"3"
                    },
                 "rotation":0,
                 "type":"",
                 "visible":true,
                 "width":20,
                 "x":480,
                 "y":200
                }, 
                {
                 "height":20,
                 "id":34,
                 "name":"player",
                 "properties":
                    {
                     "id":"4"
                    },
                 "rotation":0,
                 "type":"",
                 "visible":true,
                 "width":20,
                 "x":660,
                 "y":200
                }],
         "opacity":1,
         "type":"objectgroup",
         "visible":true,
         "width":40,
         "x":0,
         "y":0
        }],
 "nextobjectid":39,
 "orientation":"orthogonal",
 "properties":
    {

    },
 "renderorder":"right-up",
 "tileheight":20,
 "tilesets":[
        {
         "firstgid":1,
         "image":"tiles.png",
         "imageheight":256,
         "imagewidth":256,
         "margin":0,
         "name":"tiles",
         "properties":
            {

            },
         "spacing":0,
         "tileheight":20,
         "tilewidth":20,
         "transparentcolor":"#ff00ff"
        }],
 "tilewidth":20,
 "version":1,
 "width":40
}